<svg id="Component_13_4" data-name="Component 13 – 4" xmlns="http://www.w3.org/2000/svg" width="14.135" height="26.449" viewBox="0 0 14.135 26.449">
  <path id="Path_533" data-name="Path 533" d="M2029.8,9014.206a.563.563,0,0,0-.361-.436,12.879,12.879,0,0,0-4.325-.842,7.692,7.692,0,0,0-3.916,1h0a4.9,4.9,0,0,0-1.524,1.368,6.371,6.371,0,0,0-1.056,2.631,15.462,15.462,0,0,0-.221,2.254c-.33.007-.7.009-1.045.009l-.769,0c-.1,0-.18,0-.236,0h-.085a.567.567,0,0,0-.4.161.558.558,0,0,0-.165.4l.022,3.728a.582.582,0,0,0,.563.584h.391c.549,0,1.573-.023,2.361-.008.116,2.56.144,6.395.144,9.372,0,1.255-.005,2.349-.01,3.137,0,.392-.005.7-.007.92s0,.332,0,.332a.56.56,0,0,0,.564.565l4.987-.023a.562.562,0,0,0,.558-.566s-.026-3.067-.057-6.376c-.025-2.845-.056-5.865-.072-7.271.308,0,.667-.008,1.015-.007.408,0,.805,0,1.1,0,.147,0,.268,0,.352,0h.133a.562.562,0,0,0,.568-.56l.007-3.45a.683.683,0,0,0-.164-.448.618.618,0,0,0-.4-.213h-.187c-.119,0-.288.051-.492.051-.625,0-1.573.021-2.321.009a6.2,6.2,0,0,1,.105-1,2.823,2.823,0,0,1,.217-.7,1.425,1.425,0,0,1,.219-.345,1.056,1.056,0,0,1,.417-.3,1.683,1.683,0,0,1,.645-.111,5.732,5.732,0,0,1,1.954.457l.019,0,.019.011.036.006.057.011.053,0a.356.356,0,0,0,.056,0,.5.5,0,0,0,.053-.007l.052-.011a.429.429,0,0,0,.051-.018.437.437,0,0,0,.051-.02.4.4,0,0,0,.045-.027.324.324,0,0,0,.047-.029.266.266,0,0,0,.039-.035.544.544,0,0,0,.04-.037c.012-.015.023-.029.035-.043s.021-.031.031-.046.017-.034.025-.051l.016-.034,0-.013.009-.024c.113-.374.308-1,.475-1.66.084-.329.161-.671.219-1a5.64,5.64,0,0,0,.095-.933A2.421,2.421,0,0,0,2029.8,9014.206Zm-4.7,3.034a2.207,2.207,0,0,0-.713.588,3.271,3.271,0,0,0-.6,1.329,7.848,7.848,0,0,0-.168,1.751c0,.066,0,.136,0,.205a.5.5,0,0,0,.543.47c.8.026,2.1-.052,2.905-.052h.12l-.005,2.4c-.287,0-.653.036-1.032.036-.6,0-1.216.027-1.611.046a.571.571,0,0,0-.533.579c.016.958.049,4.515.08,7.82.015,1.655.029,3.251.04,4.432,0,.572.008,1.047.012,1.386l-3.857.02c.007-.742.015-2.153.015-3.844,0-3.194-.031-7.378-.172-9.961a.559.559,0,0,0-.538-.531c-.76-.025-2.024-.031-2.75-.031l-.016-2.572h.535c.549,0,1.177-.006,1.623-.031a.561.561,0,0,0,.528-.545,13.082,13.082,0,0,1,.411-3.4,4.668,4.668,0,0,1,.668-1.383,3.78,3.78,0,0,1,1.182-1.057h0a6.575,6.575,0,0,1,3.352-.851,11.431,11.431,0,0,1,3.587.651,4.975,4.975,0,0,1-.075.626c-.075.434-.2.927-.323,1.379-.057.207-.115.4-.168.586a5.858,5.858,0,0,0-1.789-.331A2.664,2.664,0,0,0,2025.1,9017.24Z" transform="translate(-2015.693 -9012.929)" fill="#c1c1c1"/>
</svg>
