<svg xmlns="http://www.w3.org/2000/svg" width="28.197" height="28.197" viewBox="0 0 28.197 28.197">
  <path id="Path_1013" data-name="Path 1013" d="M13.352,0h-.007a13.34,13.34,0,0,0-10.8,21.173L.878,26.132l5.131-1.64A13.346,13.346,0,1,0,13.352,0Zm7.767,18.85a3.767,3.767,0,0,1-2.62,1.884c-.7.149-1.609.267-4.675-1C9.9,18.1,7.375,14.118,7.178,13.859A7.624,7.624,0,0,1,5.593,9.833,4.262,4.262,0,0,1,6.958,6.584a1.939,1.939,0,0,1,1.365-.479c.165,0,.314.008.447.015.392.017.589.04.848.659.322.776,1.106,2.691,1.2,2.888a.8.8,0,0,1,.057.722,2.307,2.307,0,0,1-.432.612c-.2.227-.384.4-.581.644-.18.212-.384.439-.157.831a11.848,11.848,0,0,0,2.166,2.691A9.814,9.814,0,0,0,15,17.1a.844.844,0,0,0,.941-.149,16.152,16.152,0,0,0,1.043-1.382.745.745,0,0,1,.958-.29c.36.125,2.268,1.068,2.66,1.263s.651.29.746.456A3.324,3.324,0,0,1,21.119,18.85Z" transform="translate(0.75 0.75)" fill="none" stroke="#c1c1c1" stroke-width="1.5"/>
</svg>
